{
  "header": {
    "header": "",
    "description": "",
    "filterLabels": ["Facility"],
    "filterInfo": "",
    "groups": [],
    "title": "AA0.5 portal"
  },
  "images": [],
  "data": [
    {
      "telescope": "low",
      "filters": ["SPC", "", ""],
      "group": "",
      "avatar": "Test",
      "details": "Logs, dashboards and statistics for the software involved in testing",
      "title": "Kibana",
      "URL": "https://k8s.low.internal.skao.int/kibana/app/logs/stream?logFilter=(language:kuery,query:'ska.datacentre :\"low-aa\" ')"
    },
    {
      "telescope": "low",
      "filters": ["tCPF", "", ""],
      "group": "",
      "avatar": "Test",
      "details": "Logs, dashboards and statistics for the software involved in testing",
      "title": "Kibana",
      "URL": "https://k8s.low.internal.skao.int/kibana/app/logs/stream?logFilter=(language:kuery,query:'ska.datacentre :\"mccs-aa\" ')"
    },

    {
      "telescope": "low",
      "filters": ["SPC", "", ""],
      "group": "",
      "avatar": "Grafana",
      "details": "Dashboards displaying historical metrics from software and hardware",
      "title": "Grafana",
      "URL": "https://k8s.low.internal.skao.int/grafana2/"
    },
    {
      "telescope": "low",
      "filters": ["tCPF", "", ""],
      "group": "",
      "avatar": "Grafana",
      "details": "Dashboards displaying historical metrics from software and hardware",
      "title": "Grafana",
      "URL": "https://k8s.mccs.low.internal.skao.int/grafana2/"
    },

    {
      "telescope": "low",
      "filters": ["SPC", "", ""],
      "group": "",
      "avatar": "Taranta",
      "details": "Dashboards for controlling and monitoring test environment Tango devices",
      "title": "Taranta",
      "URL": "https://k8s.low.internal.skao.int/ska-low/taranta"
    },
    {
      "telescope": "low",
      "filters": ["tCPF", "", ""],
      "group": "",
      "avatar": "Taranta",
      "details": "Dashboards for controlling and monitoring test environment Tango devices",
      "title": "Taranta",
      "URL": "https://k8s.mccs.low.internal.skao.int/ska-low/taranta"
    },

    {
      "telescope": "low",
      "filters": ["SPC", "", ""],
      "group": "",
      "avatar": "Juypter",
      "details": "JupyterHub instance for AA0.5 components in SPC",
      "title": "JupyterHub",
      "URL": "https://k8s.low.internal.skao.int/jupyterhub/"
    },
    {
      "telescope": "low",
      "filters": ["tCPF", "", ""],
      "group": "",
      "avatar": "Juypter",
      "details": "JupyterHub instance for AA0.5 components in tCPF",
      "title": "JupyterHub",
      "URL": "https://k8s.mccs.low.internal.skao.int/jupyterhub/"
    },

    {
      "telescope": "low",
      "filters": ["SPC", "", ""],
      "group": "",
      "avatar": "SKAO",
      "details": "Real-time signal display for the data going through the processors",
      "title": "SDP Signal Display",
      "URL": "https://k8s.low.internal.skao.int/ska-low/signal/display/"
    }
  ]
}
